%YAML 1.1
%TAG !u! tag:unity3d.com,2011:
--- !u!1045 &1
EditorBuildSettings:
  m_ObjectHideFlags: 0
  serializedVersion: 2
  m_Scenes:
  - enabled: 1
    path: Assets/Scenes/MainMenu.unity
    guid: 19ba7d8fdcb84f64ca59fad8f4a0acba
  - enabled: 1
    path: Assets/Scenes/EasyGame.unity
    guid: 90e04616f23e1d34bafa3b141dfd7d85
  - enabled: 1
    path: Assets/Scenes/MediumGame.unity
    guid: cca896d58da179449b9b40626324ede3
  - enabled: 1
    path: Assets/Scenes/HardGame.unity
    guid: 28fbdde852fd01e43bdbd79f594790a7
  m_configObjects: {}
